<?xml version="1.0"?>
<DemoManager>
	<MainWindow x="106" y="21" cx="834" cy="581" sel="0" />
	<page1>
		<Sln Type="7" />
		<SlnVer Ver="0" />
		<Temp Path="" />
		<lang Type="" />
		<langIndex index="" />
	</page1>
	<page2>
		<langIndex index="0" />
	</page2>
	<page3>
		<langIndex index="0" />
	</page3>
</DemoManager>
